Suite/Test/Step Name,Browser,Description,Tag,Start time,End time,Duration,Status
TS01-MOB-Register,,,,2023-08-21 08:16:43,2023-08-21 08:24:22,"7m - 39,299s",PASSED
,,,,,,,
Test Cases/MOB - S02 - Register/TC-REG-01 - Register with valid data entry,,,,2023-08-21 08:16:44,2023-08-21 08:18:23,"1m - 39,155s",PASSED
"startApplication(""C:\Users\HP\Downloads\DemoAppV2.apk"", true)",,,,2023-08-21 08:16:46,2023-08-21 08:17:46,"59,683s",PASSED
"tap(findTestObject(""Object Repository/Mobile/Register/android.view.ViewGroup""), 0)",,,,2023-08-21 08:17:46,2023-08-21 08:17:48,"2,158s",PASSED
"tap(findTestObject(""Object Repository/Mobile/Register/android.view.ViewGroup (1)""), 0)",,,,2023-08-21 08:17:48,2023-08-21 08:17:50,"2,185s",PASSED
"tap(findTestObject(""Object Repository/Mobile/Register/android.view.ViewGroup (2)""), 0)",,,,2023-08-21 08:17:50,2023-08-21 08:17:53,"2,889s",PASSED
"setText(findTestObject(""Object Repository/Mobile/Register/android.widget.EditText - Nama Anda""), ""M Nasihul Umam"", 0)",,,,2023-08-21 08:17:53,2023-08-21 08:17:55,"2,428s",PASSED
"tap(findTestObject(""Object Repository/Mobile/Register/android.view.ViewGroup (3)""), 0)",,,,2023-08-21 08:17:55,2023-08-21 08:17:57,"1,608s",PASSED
"tap(findTestObject(""Object Repository/Mobile/Register/android.view.View - 1""), 0)",,,,2023-08-21 08:17:57,2023-08-21 08:17:59,"1,684s",PASSED
"tap(findTestObject(""Object Repository/Mobile/Register/android.widget.Button - OKE""), 0)",,,,2023-08-21 08:17:59,2023-08-21 08:17:59,"0,636s",PASSED
"tap(findTestObject(""Object Repository/Mobile/Register/android.view.ViewGroup (4)""), 0)",,,,2023-08-21 08:17:59,2023-08-21 08:18:02,"2,253s",PASSED
"setText(findTestObject(""Object Repository/Mobile/Register/android.widget.EditText - contohmail.com""), ""nasihulumam17@gmail.com"", 0)",,,,2023-08-21 08:18:02,2023-08-21 08:18:03,"1,751s",PASSED
"tap(findTestObject(""Object Repository/Mobile/Register/android.view.ViewGroup (5)""), 0)",,,,2023-08-21 08:18:03,2023-08-21 08:18:06,"2,155s",PASSED
"setText(findTestObject(""Object Repository/Mobile/Register/android.widget.EditText - WhatsApp""), ""083823045047"", 0)",,,,2023-08-21 08:18:06,2023-08-21 08:18:07,"1,593s",PASSED
"tap(findTestObject(""Object Repository/Mobile/Register/android.view.ViewGroup (6)""), 0)",,,,2023-08-21 08:18:07,2023-08-21 08:18:09,"2,137s",PASSED
"setEncryptedText(findTestObject(""Object Repository/Mobile/Register/android.widget.EditText - Masukan Kata Sandi Anda""), ""34vTivbG0FSs7zzBkH57Ug=="", 0)",,,,2023-08-21 08:18:09,2023-08-21 08:18:12,"2,335s",PASSED
"tap(findTestObject(""Object Repository/Mobile/Register/android.view.ViewGroup (7)""), 0)",,,,2023-08-21 08:18:12,2023-08-21 08:18:16,"3,963s",PASSED
"setEncryptedText(findTestObject(""Object Repository/Mobile/Register/android.widget.EditText - Ulangi Kata Sandi Anda""), ""34vTivbG0FSs7zzBkH57Ug=="", 0)",,,,2023-08-21 08:18:16,2023-08-21 08:18:18,"2,045s",PASSED
"tap(findTestObject(""Object Repository/Mobile/Register/android.widget.CheckBox""), 0)",,,,2023-08-21 08:18:18,2023-08-21 08:18:19,"1,799s",PASSED
"tap(findTestObject(""Object Repository/Mobile/Register/android.view.ViewGroup (8)""), 0)",,,,2023-08-21 08:18:19,2023-08-21 08:18:21,"1,252s",PASSED
closeApplication(),,,,2023-08-21 08:18:21,2023-08-21 08:18:23,"2,635s",PASSED
,,,,,,,
Test Cases/MOB - S02 - Register/TC-REG-02- Resend the verification link,,,,2023-08-21 08:18:23,2023-08-21 08:19:46,"1m - 23,116s",PASSED
"startApplication(""C:\Users\HP\Downloads\DemoAppV2.apk"", true)",,,,2023-08-21 08:18:25,2023-08-21 08:18:58,"33,116s",PASSED
"tap(findTestObject(""Object Repository/Mobile/Register/android.view.ViewGroup""), 0)",,,,2023-08-21 08:18:58,2023-08-21 08:19:05,"7,670s",PASSED
"tap(findTestObject(""Object Repository/Mobile/Register/android.view.ViewGroup (1)""), 0)",,,,2023-08-21 08:19:05,2023-08-21 08:19:08,"2,410s",PASSED
"tap(findTestObject(""Object Repository/Mobile/Register/android.view.ViewGroup (2)""), 0)",,,,2023-08-21 08:19:08,2023-08-21 08:19:11,"3,352s",PASSED
"setText(findTestObject(""Object Repository/Mobile/Register/android.widget.EditText - Nama Anda""), ""M Nasihul Umam"", 0)",,,,2023-08-21 08:19:11,2023-08-21 08:19:13,"2,161s",PASSED
"tap(findTestObject(""Object Repository/Mobile/Register/android.view.ViewGroup (3)""), 0)",,,,2023-08-21 08:19:13,2023-08-21 08:19:15,"1,627s",PASSED
"tap(findTestObject(""Object Repository/Mobile/Register/android.view.View - 1""), 0)",,,,2023-08-21 08:19:15,2023-08-21 08:19:16,"1,621s",PASSED
"tap(findTestObject(""Object Repository/Mobile/Register/android.widget.Button - OKE""), 0)",,,,2023-08-21 08:19:16,2023-08-21 08:19:17,"0,767s",PASSED
"tap(findTestObject(""Object Repository/Mobile/Register/android.view.ViewGroup (4)""), 0)",,,,2023-08-21 08:19:17,2023-08-21 08:19:20,"2,308s",PASSED
"setText(findTestObject(""Object Repository/Mobile/Register/android.widget.EditText - contohmail.com""), ""nasihulumam17@gmail.com"", 0)",,,,2023-08-21 08:19:20,2023-08-21 08:19:22,"2,076s",PASSED
"tap(findTestObject(""Object Repository/Mobile/Register/android.view.ViewGroup (5)""), 0)",,,,2023-08-21 08:19:22,2023-08-21 08:19:24,"2,191s",PASSED
"setText(findTestObject(""Object Repository/Mobile/Register/android.widget.EditText - WhatsApp""), ""083823045047"", 0)",,,,2023-08-21 08:19:24,2023-08-21 08:19:26,"2,070s",PASSED
"tap(findTestObject(""Object Repository/Mobile/Register/android.view.ViewGroup (6)""), 0)",,,,2023-08-21 08:19:26,2023-08-21 08:19:28,"2,322s",PASSED
"setEncryptedText(findTestObject(""Object Repository/Mobile/Register/android.widget.EditText - Masukan Kata Sandi Anda""), ""34vTivbG0FSs7zzBkH57Ug=="", 0)",,,,2023-08-21 08:19:28,2023-08-21 08:19:31,"2,691s",PASSED
"tap(findTestObject(""Object Repository/Mobile/Register/android.view.ViewGroup (7)""), 0)",,,,2023-08-21 08:19:31,2023-08-21 08:19:34,"3,549s",PASSED
"setEncryptedText(findTestObject(""Object Repository/Mobile/Register/android.widget.EditText - Ulangi Kata Sandi Anda""), ""34vTivbG0FSs7zzBkH57Ug=="", 0)",,,,2023-08-21 08:19:34,2023-08-21 08:19:37,"2,068s",PASSED
"tap(findTestObject(""Object Repository/Mobile/Register/android.widget.CheckBox""), 0)",,,,2023-08-21 08:19:37,2023-08-21 08:19:38,"1,661s",PASSED
"tap(findTestObject(""Object Repository/Mobile/Register/android.view.ViewGroup (8)""), 0)",,,,2023-08-21 08:19:38,2023-08-21 08:19:40,"1,430s",PASSED
"tap(findTestObject(""Mobile/Register/android.view.ViewGroup (10)""), 0)",,,,2023-08-21 08:19:40,2023-08-21 08:19:45,"5,265s",PASSED
closeApplication(),,,,2023-08-21 08:19:45,2023-08-21 08:19:46,"1,573s",PASSED
,,,,,,,
Test Cases/MOB - S02 - Register/TC-REG-03 - Register by entering special characters in the name column,,,,2023-08-21 08:19:46,2023-08-21 08:20:37,"50,515s",PASSED
"startApplication(""C:\Users\HP\Downloads\DemoAppV2.apk"", true)",,,,2023-08-21 08:19:48,2023-08-21 08:20:23,"35,298s",PASSED
"tap(findTestObject(""Object Repository/Mobile/Register/android.view.ViewGroup""), 0)",,,,2023-08-21 08:20:23,2023-08-21 08:20:30,"7,113s",PASSED
"tap(findTestObject(""Object Repository/Mobile/Register/android.view.ViewGroup (1)""), 0)",,,,2023-08-21 08:20:30,2023-08-21 08:20:32,"1,958s",PASSED
"tap(findTestObject(""Object Repository/Mobile/Register/android.view.ViewGroup (2)""), 0)",,,,2023-08-21 08:20:32,2023-08-21 08:20:34,"2,414s",PASSED
"setText(findTestObject(""Object Repository/Mobile/Register/android.widget.EditText - Nama Anda""), ""@ admin"", 0)",,,,2023-08-21 08:20:34,2023-08-21 08:20:37,"2,683s",PASSED
,,,,,,,
Test Cases/MOB - S02 - Register/TC-REG-04 - Register by entering numbers in the name column,,,,2023-08-21 08:20:37,2023-08-21 08:21:11,"33,919s",PASSED
"startApplication(""C:\Users\HP\Downloads\DemoAppV2.apk"", true)",,,,2023-08-21 08:20:38,2023-08-21 08:20:56,"18,034s",PASSED
"tap(findTestObject(""Object Repository/Mobile/Register/android.view.ViewGroup""), 0)",,,,2023-08-21 08:20:56,2023-08-21 08:21:03,"7,149s",PASSED
"tap(findTestObject(""Object Repository/Mobile/Register/android.view.ViewGroup (1)""), 0)",,,,2023-08-21 08:21:03,2023-08-21 08:21:06,"2,394s",PASSED
"tap(findTestObject(""Object Repository/Mobile/Register/android.view.ViewGroup (2)""), 0)",,,,2023-08-21 08:21:06,2023-08-21 08:21:09,"3,523s",PASSED
"setText(findTestObject(""Object Repository/Mobile/Register/android.widget.EditText - Nama Anda""), ""123 name"", 0)",,,,2023-08-21 08:21:09,2023-08-21 08:21:11,"1,610s",PASSED
,,,,,,,
Test Cases/MOB - S02 - Register/TC-REG-05 - Register without entering the symbol character in the email field,,Symbol @,,2023-08-21 08:21:11,2023-08-21 08:21:54,"42,780s",PASSED
"startApplication(""C:\Users\HP\Downloads\DemoAppV2.apk"", true)",,,,2023-08-21 08:21:12,2023-08-21 08:21:31,"18,673s",PASSED
"tap(findTestObject(""Object Repository/Mobile/Register/android.view.ViewGroup""), 0)",,,,2023-08-21 08:21:31,2023-08-21 08:21:39,"8,225s",PASSED
"tap(findTestObject(""Object Repository/Mobile/Register/android.view.ViewGroup (1)""), 0)",,,,2023-08-21 08:21:39,2023-08-21 08:21:41,"2,159s",PASSED
"tap(findTestObject(""Object Repository/Mobile/Register/android.view.ViewGroup (2)""), 0)",,,,2023-08-21 08:21:41,2023-08-21 08:21:45,"3,272s",PASSED
"setText(findTestObject(""Object Repository/Mobile/Register/android.widget.EditText - Nama Anda""), ""M Nasihul Umam"", 0)",,,,2023-08-21 08:21:45,2023-08-21 08:21:46,"1,664s",PASSED
"tap(findTestObject(""Object Repository/Mobile/Register/android.view.ViewGroup (3)""), 0)",,,,2023-08-21 08:21:46,2023-08-21 08:21:48,"1,380s",PASSED
"tap(findTestObject(""Object Repository/Mobile/Register/android.view.View - 1""), 0)",,,,2023-08-21 08:21:48,2023-08-21 08:21:49,"1,681s",PASSED
"tap(findTestObject(""Object Repository/Mobile/Register/android.widget.Button - OKE""), 0)",,,,2023-08-21 08:21:49,2023-08-21 08:21:50,"0,740s",PASSED
"tap(findTestObject(""Object Repository/Mobile/Register/android.view.ViewGroup (4)""), 0)",,,,2023-08-21 08:21:50,2023-08-21 08:21:52,"2,232s",PASSED
"setText(findTestObject(""Object Repository/Mobile/Register/android.widget.EditText - contohmail.com""), ""name-mail.com"", 0)",,,,2023-08-21 08:21:52,2023-08-21 08:21:54,"1,307s",PASSED
,,,,,,,
Test Cases/MOB - S02 - Register/TC-REG-06 - Register without entering the letter after the character (dot) in the email column,,,,2023-08-21 08:21:54,2023-08-21 08:22:43,"48,880s",PASSED
"startApplication(""C:\Users\HP\Downloads\DemoAppV2.apk"", true)",,,,2023-08-21 08:21:57,2023-08-21 08:22:18,"20,549s",PASSED
"tap(findTestObject(""Object Repository/Mobile/Register/android.view.ViewGroup""), 0)",,,,2023-08-21 08:22:18,2023-08-21 08:22:27,"9,405s",PASSED
"tap(findTestObject(""Object Repository/Mobile/Register/android.view.ViewGroup (1)""), 0)",,,,2023-08-21 08:22:27,2023-08-21 08:22:30,"2,597s",PASSED
"tap(findTestObject(""Object Repository/Mobile/Register/android.view.ViewGroup (2)""), 0)",,,,2023-08-21 08:22:30,2023-08-21 08:22:32,"2,346s",PASSED
"setText(findTestObject(""Object Repository/Mobile/Register/android.widget.EditText - Nama Anda""), ""M Nasihul Umam"", 0)",,,,2023-08-21 08:22:32,2023-08-21 08:22:35,"2,729s",PASSED
"tap(findTestObject(""Object Repository/Mobile/Register/android.view.ViewGroup (3)""), 0)",,,,2023-08-21 08:22:35,2023-08-21 08:22:36,"1,292s",PASSED
"tap(findTestObject(""Object Repository/Mobile/Register/android.view.View - 1""), 0)",,,,2023-08-21 08:22:36,2023-08-21 08:22:38,"1,689s",PASSED
"tap(findTestObject(""Object Repository/Mobile/Register/android.widget.Button - OKE""), 0)",,,,2023-08-21 08:22:38,2023-08-21 08:22:38,"0,565s",PASSED
"tap(findTestObject(""Object Repository/Mobile/Register/android.view.ViewGroup (4)""), 0)",,,,2023-08-21 08:22:38,2023-08-21 08:22:40,"2,260s",PASSED
"setText(findTestObject(""Object Repository/Mobile/Register/android.widget.EditText - contohmail.com""), ""nasihulumam@mail."", 0)",,,,2023-08-21 08:22:40,2023-08-21 08:22:43,"2,191s",PASSED
,,,,,,,
Test Cases/MOB - S02 - Register/TC-REG-07 - Register with a Whatsapp number less than 9 characters,,,,2023-08-21 08:22:43,2023-08-21 08:23:30,"47,802s",PASSED
"startApplication(""C:\Users\HP\Downloads\DemoAppV2.apk"", true)",,,,2023-08-21 08:22:44,2023-08-21 08:23:02,"17,718s",PASSED
"tap(findTestObject(""Object Repository/Mobile/Register/android.view.ViewGroup""), 0)",,,,2023-08-21 08:23:02,2023-08-21 08:23:12,"10,209s",PASSED
"tap(findTestObject(""Object Repository/Mobile/Register/android.view.ViewGroup (1)""), 0)",,,,2023-08-21 08:23:12,2023-08-21 08:23:14,"1,835s",PASSED
"tap(findTestObject(""Object Repository/Mobile/Register/android.view.ViewGroup (2)""), 0)",,,,2023-08-21 08:23:14,2023-08-21 08:23:17,"2,913s",PASSED
"setText(findTestObject(""Object Repository/Mobile/Register/android.widget.EditText - Nama Anda""), ""M Nasihul Umam"", 0)",,,,2023-08-21 08:23:17,2023-08-21 08:23:18,"1,615s",PASSED
"tap(findTestObject(""Object Repository/Mobile/Register/android.view.ViewGroup (3)""), 0)",,,,2023-08-21 08:23:18,2023-08-21 08:23:20,"1,487s",PASSED
"tap(findTestObject(""Object Repository/Mobile/Register/android.view.View - 1""), 0)",,,,2023-08-21 08:23:20,2023-08-21 08:23:22,"1,874s",PASSED
"tap(findTestObject(""Object Repository/Mobile/Register/android.widget.Button - OKE""), 0)",,,,2023-08-21 08:23:22,2023-08-21 08:23:22,"0,541s",PASSED
"tap(findTestObject(""Object Repository/Mobile/Register/android.view.ViewGroup (4)""), 0)",,,,2023-08-21 08:23:22,2023-08-21 08:23:24,"2,351s",PASSED
"setText(findTestObject(""Object Repository/Mobile/Register/android.widget.EditText - contohmail.com""), ""nasihulumam15@gmail.com"", 0)",,,,2023-08-21 08:23:24,2023-08-21 08:23:26,"2,030s",PASSED
"tap(findTestObject(""Object Repository/Mobile/Register/android.view.ViewGroup (5)""), 0)",,,,2023-08-21 08:23:26,2023-08-21 08:23:29,"2,140s",PASSED
"setText(findTestObject(""Object Repository/Mobile/Register/android.widget.EditText - WhatsApp""), ""12345"", 0)",,,,2023-08-21 08:23:29,2023-08-21 08:23:30,"1,887s",PASSED
,,,,,,,
Test Cases/MOB - S02 - Register/TC-REG-08 - Register with a password of less than 8 characters,,,,2023-08-21 08:23:31,2023-08-21 08:24:22,"51,713s",PASSED
"startApplication(""C:\Users\HP\Downloads\DemoAppV2.apk"", true)",,,,2023-08-21 08:23:32,2023-08-21 08:23:50,"18,647s",PASSED
"tap(findTestObject(""Object Repository/Mobile/Register/android.view.ViewGroup""), 0)",,,,2023-08-21 08:23:50,2023-08-21 08:23:58,"8,066s",PASSED
"tap(findTestObject(""Object Repository/Mobile/Register/android.view.ViewGroup (1)""), 0)",,,,2023-08-21 08:23:58,2023-08-21 08:24:01,"2,257s",PASSED
"tap(findTestObject(""Object Repository/Mobile/Register/android.view.ViewGroup (2)""), 0)",,,,2023-08-21 08:24:01,2023-08-21 08:24:04,"3,614s",PASSED
"setText(findTestObject(""Object Repository/Mobile/Register/android.widget.EditText - Nama Anda""), ""M Nasihul Umam"", 0)",,,,2023-08-21 08:24:04,2023-08-21 08:24:07,"2,449s",PASSED
"tap(findTestObject(""Object Repository/Mobile/Register/android.view.ViewGroup (3)""), 0)",,,,2023-08-21 08:24:07,2023-08-21 08:24:08,"1,477s",PASSED
"tap(findTestObject(""Object Repository/Mobile/Register/android.view.View - 1""), 0)",,,,2023-08-21 08:24:08,2023-08-21 08:24:10,"1,937s",PASSED
"tap(findTestObject(""Object Repository/Mobile/Register/android.widget.Button - OKE""), 0)",,,,2023-08-21 08:24:10,2023-08-21 08:24:11,"0,493s",PASSED
"tap(findTestObject(""Object Repository/Mobile/Register/android.view.ViewGroup (4)""), 0)",,,,2023-08-21 08:24:11,2023-08-21 08:24:13,"2,320s",PASSED
"setText(findTestObject(""Object Repository/Mobile/Register/android.widget.EditText - contohmail.com""), ""nasihulumam15@gmail.com"", 0)",,,,2023-08-21 08:24:13,2023-08-21 08:24:14,"1,635s",PASSED
"tap(findTestObject(""Object Repository/Mobile/Register/android.view.ViewGroup (5)""), 0)",,,,2023-08-21 08:24:14,2023-08-21 08:24:17,"2,288s",PASSED
"setText(findTestObject(""Object Repository/Mobile/Register/android.widget.EditText - WhatsApp""), ""083823045047"", 0)",,,,2023-08-21 08:24:17,2023-08-21 08:24:18,"1,496s",PASSED
"tap(findTestObject(""Object Repository/Mobile/Register/android.view.ViewGroup (6)""), 0)",,,,2023-08-21 08:24:18,2023-08-21 08:24:21,"2,448s",PASSED
"setEncryptedText(findTestObject(""Object Repository/Mobile/Register/android.widget.EditText - Masukan Kata Sandi Anda""), ""iGDxf8hSRT4="", 0)",,,,2023-08-21 08:24:21,2023-08-21 08:24:22,"1,515s",PASSED
