{
  "log" : {
    "version" : "1.2",
    "pages" : [ ],
    "entries" : [ {
      "startedDateTime" : "2023-08-21T01:25:34.952Z",
      "request" : {
        "method" : "POST",
        "url" : "https://demo-app.online/api/login",
        "httpVersion" : "",
        "cookies" : [ ],
        "headers" : [ {
          "name" : "Content-Type",
          "value" : "application/x-www-form-urlencoded"
        } ],
        "queryString" : [ ],
        "postData" : {
          "mimeType" : "application/x-www-form-urlencoded",
          "params" : [ {
            "name" : "email",
            "value" : "cihek19445@hempyl.com",
            "comment" : ""
          }, {
            "name" : "password",
            "value" : "P@ssw0rd",
            "comment" : ""
          } ],
          "comment" : ""
        },
        "headersSize" : 0,
        "bodySize" : 0,
        "comment" : ""
      },
      "response" : {
        "status" : 200,
        "statusText" : "",
        "httpVersion" : "",
        "cookies" : [ ],
        "headers" : [ {
          "name" : "Keep-Alive",
          "value" : "timeout=5, max=100"
        }, {
          "name" : "access-control-allow-origin",
          "value" : "*"
        }, {
          "name" : "date",
          "value" : "Mon, 21 Aug 2023 01:25:31 GMT"
        }, {
          "name" : "server",
          "value" : "LiteSpeed"
        }, {
          "name" : "x-ratelimit-limit",
          "value" : "60"
        }, {
          "name" : "vary",
          "value" : "Accept-Encoding"
        }, {
          "name" : "Connection",
          "value" : "Keep-Alive"
        }, {
          "name" : "x-powered-by",
          "value" : "PHP/7.4.33"
        }, {
          "name" : "content-type",
          "value" : "application/json"
        }, {
          "name" : "#status#",
          "value" : "HTTP/1.1 200 OK"
        }, {
          "name" : "cache-control",
          "value" : "no-cache, private"
        }, {
          "name" : "x-ratelimit-remaining",
          "value" : "58"
        } ],
        "content" : {
          "size" : 1340,
          "mimeType" : "application/json",
          "text" : "{\"success\":{\"member_name\":\"Basic\",\"member_id\":1,\"token\":\"eyJ0eXAiOiJKV1QiLCJhbGciOiJSUzI1NiJ9.eyJhdWQiOiIzIiwianRpIjoiOWY2MjU3ZjJmYzczN2E4NjE3NjkxNzRkZmYyZDVmNGNhMjU0YWNlOWU5YmFjOGIwNzhlOTBiZWQ0OTg5ZDQ2ZTYyY2FkNGE5NTYyY2U4N2YiLCJpYXQiOjE2OTI1ODExMzEuNzgyNjEzLCJuYmYiOjE2OTI1ODExMzEuNzgyNjE2LCJleHAiOjE3MjQyMDM1MzEuNzgxNDI4LCJzdWIiOiI2NCIsInNjb3BlcyI6W119.esiv4KIg5dz5LozCcGxzOg3G1vza3uG3D0f93XHznhyz2x1v5Pgeq8AvqX6tV12-Ma5usJgueCCVY2twVI9rLaRKgnaXykSRpvltCy7ulFLxVZu9FIW38-lek3NipAwiLb_kPT0yNfHfnRwkSphxG_HA_UWzIyiUZdUc3zSPAKPax9X5ZZKsdK6lKdiBauVWUUCACXPD_wRkQExSFyQDH7jiS21F_Mk_cz9oDWukmwz09g7BMXyuBwlCvVuslLUxVMk8kjZgQQ_mrLfWn8m_WUi3ZoH_WRFDXfheK4mPf0FyiJo8irIuKuWaBuWcnriZxSQrV2Zdc29JEP3L_fzcpYUyr1k9ZFfCDQsxY5GIPPcm7yVdl6uRBu-FpIpDphOBF1y8aLwBoK_kLal8mwYH3qiS4qxxQZ2dkXuxF2kanBDq2rpA5FS1UFhsHwhIj-TpzDXvGuZGthfFyV0X7Wsad7W_T0ohaUEXTE6GXzNTEGZ6dlGGJCk1nebYRtzmtFuLagDwgPYcA-fgwuWHBs3g-L-4LOmvDMOCSZkUvfZ-a7GWFVKh7qpnq5T3X8iV2KmLQ1TSMNuwmiIrrIS5ZMgSY_5258oJIWDSti72jAAFHsJ7-xeOcVD9vG-q7YcNwQQ4paNXLLsTPDEd7gXyYf5183L0x3uYuOw3wUFFk3ojTco\",\"name\":\"Havizh123\",\"email\":\"cihek19445@hempyl.com\",\"birth_date\":\"0000-00-00\",\"whatsapp\":\"123456789\",\"referral\":\"6MNWV\",\"points\":\"0\",\"bio\":\"dev\",\"position\":\"eng\",\"photo\":\"https:\\/\\/storage.googleapis.com\\/codingid-storage-bucket\\/storage\\/uploads\\/avatar\\/1692005466screenshot.png\",\"isPartner\":false}}",
          "comment" : ""
        },
        "redirectURL" : "",
        "headersSize" : 265,
        "bodySize" : -1,
        "comment" : ""
      },
      "cache" : { },
      "timings" : {
        "comment" : "",
        "ssl" : -1,
        "connect" : 0,
        "dns" : -1,
        "wait" : 0,
        "receive" : 0,
        "blocked" : -1,
        "send" : 0
      },
      "comment" : "",
      "_katalonRequestInformation" : {
        "name" : "1",
        "testObjectId" : "Object Repository/API/Login/TC-API-01",
        "harId" : "bc3b4585-2918-4366-b66a-57d5132be091",
        "reportFolder" : null
      },
      "time" : 0
    } ],
    "comment" : ""
  }
}