{
  "log" : {
    "version" : "1.2",
    "pages" : [ ],
    "entries" : [ {
      "startedDateTime" : "2023-08-14T09:31:06.270Z",
      "request" : {
        "method" : "POST",
        "url" : "https://demo-app.online/api/updateprofile",
        "httpVersion" : "",
        "cookies" : [ ],
        "headers" : [ {
          "name" : "Content-Type",
          "value" : "multipart/form-data"
        }, {
          "name" : "Authorization",
          "value" : "Bearer eyJ0eXAiOiJKV1QiLCJhbGciOiJSUzI1NiJ9.eyJhdWQiOiIzIiwianRpIjoiMjBjNzhlMjNmYzZiMjY5ZmRmZjkwYjNhNDI3N2I2YzQ2MzExMTZkMDNkMTQ3OTFlMGMwMDVhN2FiM2I3MjcxOGZjZjlkNGQ1NGVlYzk5MDUiLCJpYXQiOjE2OTE5ODkyMzYuNDgyOTc3LCJuYmYiOjE2OTE5ODkyMzYuNDgyOTgsImV4cCI6MTcyMzYxMTYzNi40ODAxNDcsInN1YiI6IjY0Iiwic2NvcGVzIjpbXX0.WiqHQ118quHqO9g3Z-yno-JQ1_oCzpO8wCD2kFYMTRuW-6MfW0eNhgCLQV67cqxPYzsWAnkbA6UgFgkucIhSAisQQCntPQp2DLYwAvblPLFttZh3qSvjXXgOc9jqHEwKLDk6T4vvsC7kUrn84Lyk0kRPYznx8rgLIGY1qzCGzBQLo9STJYSnM-PUGE9RIZnmsvw2ykEjsm1e7dY5oaaP33owBmgVDMxsbK5Lqj8e9YQyrIu5jIioKZgTs-fU7RsXvmsIXuAhjC6KRdcoitY-h72-OAsJv57g92741RyMNzpA4WV1emrJFEd0-rNbFVwoyLJVV0rd3WNmkt-hzm25DTG6SsxRnaRksEN4w4aKLjXRPtOGIhSdAaL17BGFdGHMaRr4vpnZmlm2CeqYoTGIhRaWe1x1dMz56OMLbvtdfSl1Mtq5oyTR-R-_Y2CJgSIupU6AO6SZAzpDJs2OtXoThr2_4LVFxVt64TMhAtFU8r2nc5KlXaP1yonJICX25BCZvqUSNWW0gH8XhmMcAzWWrlL2TPOZQo7yNhMhPAnSkScPPm7CGRCTXKijGAVtUgrqtaO-C0wpQ9zxd9bRb4hxodS2bVrhG7560_Cr9bhDQ46GitW739CFWQngMlVIh1zNb3nlQvFzTlDOrA8lQYgvRmRufNHtKBu0K1lI6EiQdFo"
        } ],
        "queryString" : [ ],
        "postData" : {
          "mimeType" : "multipart/form-data",
          "text" : "",
          "comment" : ""
        },
        "headersSize" : 0,
        "bodySize" : 0,
        "comment" : ""
      },
      "response" : {
        "status" : 200,
        "statusText" : "",
        "httpVersion" : "",
        "cookies" : [ ],
        "headers" : [ {
          "name" : "Keep-Alive",
          "value" : "timeout=5, max=100"
        }, {
          "name" : "access-control-allow-origin",
          "value" : "*"
        }, {
          "name" : "date",
          "value" : "Mon, 14 Aug 2023 09:31:05 GMT"
        }, {
          "name" : "server",
          "value" : "LiteSpeed"
        }, {
          "name" : "x-ratelimit-limit",
          "value" : "60"
        }, {
          "name" : "vary",
          "value" : "Accept-Encoding"
        }, {
          "name" : "Connection",
          "value" : "Keep-Alive"
        }, {
          "name" : "x-powered-by",
          "value" : "PHP/7.4.33"
        }, {
          "name" : "content-type",
          "value" : "application/json"
        }, {
          "name" : "#status#",
          "value" : "HTTP/1.1 200 OK"
        }, {
          "name" : "cache-control",
          "value" : "no-cache, private"
        }, {
          "name" : "x-ratelimit-remaining",
          "value" : "54"
        } ],
        "content" : {
          "size" : 51,
          "mimeType" : "application/json",
          "text" : "{\"status\":200,\"data\":\"success\",\"message\":\"success\"}",
          "comment" : ""
        },
        "redirectURL" : "",
        "headersSize" : 265,
        "bodySize" : -1,
        "comment" : ""
      },
      "cache" : { },
      "timings" : {
        "comment" : "",
        "receive" : 0,
        "wait" : 0,
        "connect" : 0,
        "dns" : -1,
        "send" : 0,
        "blocked" : -1,
        "ssl" : -1
      },
      "comment" : "",
      "_katalonRequestInformation" : {
        "name" : "5",
        "testObjectId" : "Object Repository/API Update Profile/Token-Data-Valid-01",
        "harId" : "28904a2e-0b74-4961-888c-c97f3eb5f0d0",
        "reportFolder" : null
      },
      "time" : 0
    } ],
    "comment" : ""
  }
}